('D:\\FCT_Test_bench\\experimental_test_bench_s32k11x\\Test_Bench_PY\\Code\\build\\main\\main.pkg',
 {'BINARY': True,
  'DATA': True,
  'EXECUTABLE': True,
  'EXTENSION': True,
  'PYMODULE': True,
  'PYSOURCE': True,
  'PYZ': False,
  'SPLASH': True,
  'SYMLINK': False},
 [('pyi-contents-directory _internal', '', 'OPTION'),
  ('PYZ-00.pyz',
   'D:\\FCT_Test_bench\\experimental_test_bench_s32k11x\\Test_Bench_PY\\Code\\build\\main\\PYZ-00.pyz',
   'PYZ'),
  ('struct',
   'D:\\FCT_Test_bench\\experimental_test_bench_s32k11x\\Test_Bench_PY\\Code\\build\\main\\localpycs\\struct.pyc',
   'PYMODULE'),
  ('pyimod01_archive',
   'D:\\FCT_Test_bench\\experimental_test_bench_s32k11x\\Test_Bench_PY\\Code\\build\\main\\localpycs\\pyimod01_archive.pyc',
   'PYMODULE'),
  ('pyimod02_importers',
   'D:\\FCT_Test_bench\\experimental_test_bench_s32k11x\\Test_Bench_PY\\Code\\build\\main\\localpycs\\pyimod02_importers.pyc',
   'PYMODULE'),
  ('pyimod03_ctypes',
   'D:\\FCT_Test_bench\\experimental_test_bench_s32k11x\\Test_Bench_PY\\Code\\build\\main\\localpycs\\pyimod03_ctypes.pyc',
   'PYMODULE'),
  ('pyimod04_pywin32',
   'D:\\FCT_Test_bench\\experimental_test_bench_s32k11x\\Test_Bench_PY\\Code\\build\\main\\localpycs\\pyimod04_pywin32.pyc',
   'PYMODULE'),
  ('pyiboot01_bootstrap',
   'C:\\Users\\vijay\\AppData\\Local\\Programs\\Python\\Python310\\lib\\site-packages\\PyInstaller\\loader\\pyiboot01_bootstrap.py',
   'PYSOURCE'),
  ('pyi_rth_inspect',
   'C:\\Users\\vijay\\AppData\\Local\\Programs\\Python\\Python310\\Lib\\site-packages\\PyInstaller\\hooks\\rthooks\\pyi_rth_inspect.py',
   'PYSOURCE'),
  ('pyi_rth__tkinter',
   'C:\\Users\\vijay\\AppData\\Local\\Programs\\Python\\Python310\\Lib\\site-packages\\PyInstaller\\hooks\\rthooks\\pyi_rth__tkinter.py',
   'PYSOURCE'),
  ('pyi_rth_pkgutil',
   'C:\\Users\\vijay\\AppData\\Local\\Programs\\Python\\Python310\\Lib\\site-packages\\PyInstaller\\hooks\\rthooks\\pyi_rth_pkgutil.py',
   'PYSOURCE'),
  ('pyi_rth_multiprocessing',
   'C:\\Users\\vijay\\AppData\\Local\\Programs\\Python\\Python310\\Lib\\site-packages\\PyInstaller\\hooks\\rthooks\\pyi_rth_multiprocessing.py',
   'PYSOURCE'),
  ('pyi_rth_pkgres',
   'C:\\Users\\vijay\\AppData\\Local\\Programs\\Python\\Python310\\Lib\\site-packages\\PyInstaller\\hooks\\rthooks\\pyi_rth_pkgres.py',
   'PYSOURCE'),
  ('pyi_rth_pyqt5',
   'C:\\Users\\vijay\\AppData\\Local\\Programs\\Python\\Python310\\Lib\\site-packages\\PyInstaller\\hooks\\rthooks\\pyi_rth_pyqt5.py',
   'PYSOURCE'),
  ('main',
   'D:\\FCT_Test_bench\\experimental_test_bench_s32k11x\\Test_Bench_PY\\Code\\main.py',
   'PYSOURCE')],
 'python310.dll',
 True,
 False,
 False,
 [],
 None,
 None,
 None)
